<svg width="41" height="42" viewBox="0 0 41 42" fill="none" xmlns="http://www.w3.org/2000/svg">
<path d="M22.3127 8.51452H19.1032V10.1051H17.6039V8.51452H14.3748C13.2077 8.51452 12.2616 9.46062 12.2616 10.6277V15.5854L15.9296 19.0161C16.1694 19.2405 16.3556 19.5044 16.5025 19.7875H22.3127C23.4797 19.7875 24.4259 18.8414 24.4259 17.6744V10.6276C24.4259 9.46058 23.4798 8.51447 22.3127 8.51447V8.51452ZM19.2775 14.6414V17.7468H17.4018V14.6414H16.0758L18.3478 11.9527L20.6117 14.6513C20.6117 14.6513 20.5987 14.6414 19.2775 14.6414H19.2775ZM0 4.34749C4.10156e-05 1.9464 1.94648 0 4.34753 0C6.74859 0 8.69498 1.9464 8.69498 4.34749C8.69498 6.74851 6.74855 8.6949 4.34753 8.6949C1.94652 8.6949 0 6.74851 0 4.34749ZM15.0274 22.0576C14.7482 22.3562 14.37 22.5072 13.9911 22.5072C13.6314 22.5075 13.285 22.3708 13.0224 22.1248L7.18483 16.6648V25.034C7.18483 25.9275 6.7636 26.7146 6.1181 27.2347L9.28401 40.2461C9.46928 41.0073 9.00207 41.7748 8.24082 41.9598C8.12827 41.9875 8.01531 42 7.90449 42C7.26518 42 6.68505 41.5656 6.5271 40.9166L4.70913 33.4453L3.68538 40.6001C3.5739 41.3752 2.85452 41.9148 2.08011 41.8033C1.3043 41.6925 0.765721 40.9742 0.876545 40.1983L2.71552 27.349C1.9884 26.8352 1.51036 25.992 1.51036 25.0341V14.0183C1.51036 12.4515 2.78078 11.1811 4.34761 11.1811C4.71032 11.1811 5.05411 11.2555 5.37296 11.3795C5.62263 11.4295 5.86277 11.5431 6.0624 11.7296L14.9606 20.0523C15.5327 20.5878 15.5628 21.4855 15.0274 22.0577V22.0576ZM36.0389 8.6949C33.6378 8.6949 31.6914 6.74851 31.6914 4.34749C31.6915 1.9464 33.6379 0 36.0389 0C38.44 0 40.3864 1.9464 40.3864 4.34749C40.3864 6.74851 38.44 8.6949 36.0389 8.6949H36.0389ZM25.4258 20.0523L34.3241 11.7296C34.5237 11.5431 34.7638 11.4296 35.0135 11.3795C35.3323 11.2554 35.6762 11.1811 36.0388 11.1811C37.6057 11.1811 38.8761 12.4515 38.8761 14.0183V25.0341C38.8761 25.992 38.398 26.8352 37.671 27.349L39.5099 40.1984C39.6207 40.9742 39.0822 41.6925 38.3063 41.8033C37.532 41.9148 36.8125 41.3752 36.7011 40.6001L35.6773 33.4453L33.8593 40.9166C33.7014 41.5657 33.1212 42 32.4819 42C32.3711 42 32.2581 41.9876 32.1456 41.9598C31.3843 41.7749 30.9171 41.0074 31.1024 40.2461L34.2683 27.2347C33.6228 26.7147 33.2016 25.9275 33.2016 25.0341V16.6648L27.364 22.1248C27.1014 22.3708 26.755 22.5075 26.3953 22.5072C26.0164 22.5072 25.6381 22.3562 25.359 22.0576C24.8236 21.4855 24.8537 20.5877 25.4259 20.0523H25.4258Z" fill="#2E405A"/>
</svg>
